Project 1: Step 2
…
initial |>
  filter(
    (Efficiency < third + mult) & (Efficiency > first - mult)
    ) |>
  arrange(
    -Efficiency
  )

# A tibble: 57 × 2
   country       Efficiency
   <chr>              <dbl>
 1 Tunisia             88.9
 2 Ghana               71.5
 3 Serbia              58.9
 4 Portugal            56.6
 5 Cote D_ivoire       53  
 6 Lithuania           49.8
 7 Kuwait              49.2
 8 Netherlands         48.0
 9 Kenya               43.2
10 NIGERIA             32.5
# ℹ 47 more rows
…
4. Average amount of volunteers per country

volunteer_per_country <- function(x){
  x |> 
    group_by(country)|>
    summarise(avg_volunteers = mean(volunteers, na.rm = TRUE))
  }

Example Call

volunteer_per_country(plastics)

# A tibble: 69 × 2
   country      avg_volunteers
   <chr>                 <dbl>
 1 Argentina             137. 
 2 Armenia                 6  
 3 Australia             185. 
 4 Bangladesh            123. 
 5 Benin                1393  
 6 Bhutan               5300  
 7 Brazil                371. 
 8 Bulgaria               25.1
 9 Burkina Faso          209. 
10 Cameroon              387  
# ℹ 59 more rows
